<?xml version="1.0" encoding="UTF-8"?>
<svg width="20px" height="20px" viewBox="0 0 20 20" version="1.1" xmlns="http://www.w3.org/2000/svg" xmlns:xlink="http://www.w3.org/1999/xlink">
    <!-- Generator: sketchtool 57.1 (101010) - https://sketch.com -->
    <title>8E818645-0714-408E-835D-7FB52B31F121</title>
    <desc>Created with sketchtool.</desc>
    <defs>
        <path d="M19.5750924,7.01622971 L16.9818382,5.01872659 L16.9818382,2.02247191 C16.9818382,1.42322097 16.582876,1.02372035 15.9844327,1.02372035 C15.3859894,1.02372035 14.9870273,1.42322097 14.9870273,2.02247191 L14.9870273,3.52059925 L10.5984433,0.224719101 C10.1994811,-0.074906367 9.80051891,-0.074906367 9.40155673,0.224719101 L0.424907648,7.01622971 C0.125686012,7.31585518 -0.0737950783,7.71535581 0.025945467,8.11485643 L3.21764292,19.3008739 C3.31738346,19.7003745 3.71634564,20 4.21504837,20 C8.30441073,20 11.5958487,20 15.8846922,20 C16.2836544,20 16.6826165,19.7003745 16.8820976,19.3008739 L19.9740545,8.11485643 C20.0737951,7.71535581 19.874314,7.31585518 19.5750924,7.01622971 Z M11.6855379,13.0087391 L11.6855379,18.0024969 L8.3144621,18.0024969 L8.3144621,13.0087391 L11.6855379,13.0087391 Z M9.97792045,4.82342808 C10.9280331,4.82342808 11.6982516,5.59468605 11.6982516,6.54608096 C11.6982516,7.49747588 10.9280331,8.26873385 9.97792045,8.26873385 C9.02780781,8.26873385 8.25758933,7.49747588 8.25758933,6.54608096 C8.25758933,5.59468605 9.02780781,4.82342808 9.97792045,4.82342808 Z" id="path-1"></path>
    </defs>
    <g id="Symbols" stroke="none" stroke-width="1" fill="none" fill-rule="evenodd">
        <g id="Icon/20px/villa-[temp]">
            <mask id="mask-2" fill="white">
                <use xlink:href="#path-1"></use>
            </mask>
            <use id="villa" fill="#1665D8" xlink:href="#path-1"></use>
        </g>
    </g>
</svg>
